…
    ## Warning in evalq(as.numeric(victim_age), <environment>): NAs introduced by
    ## coercion

### Baltimore,MD

``` r
df_homicide %>% 
  filter(city_state=='Baltimore,MD')
```

    ## # A tibble: 2,827 x 13
    ##    uid   reported_date victim_last victim_first victim_race victim_age
    ##    <chr>         <int> <chr>       <chr>        <fct>            <dbl>
    ##  1 Bal-…      20070101 NELSON      LEON         non_white           17
    ##  2 Bal-…      20070102 GOLF        EDDIE        non_white           26
    ##  3 Bal-…      20070105 MACKENNEY   THOMAS JOSE… non_white           21
    ##  4 Bal-…      20070105 CANUPP      EDWARD LEE   white               61
    ##  5 Bal-…      20070106 CUNNINGHAN  MICHAEL      non_white           46
    ##  6 Bal-…      20070106 ALSTON      RAY WILLIAM  non_white           27
    ##  7 Bal-…      20070107 HENDERSON   YULE ANTONIO non_white           21
    ##  8 Bal-…      20070108 MCDOWELL    MARCU        non_white           16
    ##  9 Bal-…      20070108 GARDNER     RODNEY THOM… non_white           21
    ## 10 Bal-…      20070108 BURNETTE    NELSENE      non_white           44
    ## # ... with 2,817 more rows, and 7 more variables: victim_sex <chr>,
    ## #   city <chr>, state <chr>, lat <dbl>, lon <dbl>, disposition <chr>,
    ## #   city_state <chr>
